coverage : .......
At line:1 char:1
+ coverage run TestNetflix.py > TestNetflix.out 2>&1
+ ~~~~~~~~~~~~~~~~~~~~~~~~~~~~~~~~~~~~~~~~~~~~~~~~~~
    + CategoryInfo          : NotSpecified: (.......:String) [], RemoteE 
   xception
    + FullyQualifiedErrorId : NativeCommandError
 
----------------------------------------------------------------------
Ran 7 tests in 9.374s

OK

